<?xml version="1.0" standalone="no"?>
<!DOCTYPE svg PUBLIC "-//W3C//DTD SVG 20010904//EN"
 "http://www.w3.org/TR/2001/REC-SVG-20010904/DTD/svg10.dtd">
<svg version="1.0" xmlns="http://www.w3.org/2000/svg"
 width="320.000000pt" height="320.000000pt" viewBox="0 0 320.000000 320.000000"
 preserveAspectRatio="xMidYMid meet">

<g transform="translate(0.000000,320.000000) scale(0.100000,-0.100000)"
fill="#00b300" stroke="none">
<path d="M1475 3094 c-93 -10 -267 -48 -355 -77 l-95 -32 0 -35 c0 -33 -3 -36
-90 -83 -134 -73 -208 -128 -332 -250 -123 -121 -196 -216 -270 -352 -47 -87
-50 -90 -83 -90 -34 0 -35 -2 -58 -65 -36 -100 -70 -262 -83 -395 -18 -188 8
-396 74 -595 29 -85 35 -95 57 -96 14 -1 30 -2 37 -3 6 0 34 -43 61 -93 70
-130 136 -217 253 -334 113 -115 212 -189 344 -261 87 -47 90 -50 90 -83 0
-35 0 -35 85 -63 326 -110 650 -111 970 -4 85 29 95 35 96 57 1 14 2 30 3 36
0 6 29 26 64 44 272 143 494 365 637 638 18 34 38 63 44 63 6 1 22 2 36 3 22
1 28 11 53 81 36 103 74 294 82 415 11 164 -21 389 -82 570 -25 76 -31 85 -53
86 -14 1 -31 2 -37 3 -7 0 -27 29 -44 64 -129 257 -380 508 -635 635 -65 33
-76 47 -67 81 4 17 -2 24 -30 36 -63 26 -209 65 -302 80 -94 16 -301 26 -370
19z m-295 -633 c49 -150 90 -279 90 -286 0 -7 -22 -29 -48 -48 -52 -39 -138
-126 -166 -169 -10 -16 -24 -28 -31 -28 -13 0 -593 188 -608 197 -12 7 72 161
137 248 112 152 261 281 426 369 l85 46 12 -28 c7 -15 53 -150 103 -301z
m1057 276 c198 -110 380 -292 501 -502 65 -113 75 -101 -143 -173 -104 -34
-243 -79 -309 -99 l-118 -37 -21 29 c-36 50 -117 133 -169 172 -26 20 -48 43
-48 49 0 14 128 410 172 531 34 93 24 91 135 30z m-470 -712 c95 -30 99 -30
106 -4 l6 21 28 -20 c44 -31 123 -119 123 -137 0 -8 -7 -15 -15 -15 -19 0 -19
0 10 -95 36 -114 35 -247 -1 -353 l-27 -76 23 -18 22 -18 -76 -76 -76 -76 -18
22 -18 23 -76 -27 c-105 -36 -229 -36 -349 -1 -102 30 -95 30 -102 4 l-6 -21
-28 20 c-44 31 -123 119 -123 137 0 8 7 15 15 15 20 0 19 12 -10 103 -34 107
-34 221 0 338 29 100 29 99 10 99 -8 0 -15 7 -15 15 0 18 79 106 123 137 l28
20 6 -21 c6 -25 25 -23 117 9 80 29 225 26 323 -5z m-680 -819 c28 -35 80 -88
115 -117 35 -28 64 -57 66 -63 2 -10 -181 -586 -193 -606 -8 -13 -37 -1 -135
58 -211 125 -381 303 -489 511 -37 72 -40 82 -25 88 64 24 582 192 594 192 8
0 38 -28 67 -63z m1403 -35 c261 -86 295 -99 292 -117 -7 -36 -123 -219 -190
-299 -37 -44 -103 -110 -147 -147 -80 -67 -263 -183 -299 -190 -16 -3 -28 25
-88 202 -37 113 -83 252 -100 309 l-32 103 30 21 c48 35 151 136 180 178 15
21 34 39 43 38 9 0 149 -44 311 -98z"/>
</g>
</svg>
